sim/sim3.log
# do run.do
# ** Warning: (vlib-34) Library already exists at "work".
# Model Technology ModelSim SE-64 vlog 10.6e Compiler 2018.06 Jun 23 2018
# Start time: 21:36:32 on Jun 03,2026
# vlog ../rtl/its_mac.v 
# -- Compiling module its_mac
# 
# Top level modules:
# 	its_mac
# End time: 21:36:32 on Jun 03,2026, Elapsed time: 0:00:00
# Errors: 0, Warnings: 0
# Model Technology ModelSim SE-64 vlog 10.6e Compiler 2018.06 Jun 23 2018
# Start time: 21:36:32 on Jun 03,2026
# vlog ../rtl/its_rom.v 
# -- Compiling module its_rom
# 
# Top level modules:
# 	its_rom
# End time: 21:36:32 on Jun 03,2026, Elapsed time: 0:00:00
# Errors: 0, Warnings: 0
# Model Technology ModelSim SE-64 vlog 10.6e Compiler 2018.06 Jun 23 2018
# Start time: 21:36:32 on Jun 03,2026
# vlog ../rtl/its_lfnst_rom.v 
# -- Compiling module its_lfnst_rom
# 
# Top level modules:
# 	its_lfnst_rom
# End time: 21:36:32 on Jun 03,2026, Elapsed time: 0:00:00
# Errors: 0, Warnings: 0
# Model Technology ModelSim SE-64 vlog 10.6e Compiler 2018.06 Jun 23 2018
# Start time: 21:36:32 on Jun 03,2026
# vlog ../rtl/its_ctrl.v 
# -- Compiling module its_ctrl
# 
# Top level modules:
# 	its_ctrl
# End time: 21:36:32 on Jun 03,2026, Elapsed time: 0:00:00
# Errors: 0, Warnings: 0
# Model Technology ModelSim SE-64 vlog 10.6e Compiler 2018.06 Jun 23 2018
# Start time: 21:36:32 on Jun 03,2026
# vlog ../rtl/its_input_buf.v 
# -- Compiling module its_input_buf
# 
# Top level modules:
# 	its_input_buf
# End time: 21:36:32 on Jun 03,2026, Elapsed time: 0:00:00
# Errors: 0, Warnings: 0
# Model Technology ModelSim SE-64 vlog 10.6e Compiler 2018.06 Jun 23 2018
# Start time: 21:36:32 on Jun 03,2026
# vlog ../rtl/its_transpose.v 
# -- Compiling module its_transpose
# 
# Top level modules:
# 	its_transpose
# End time: 21:36:32 on Jun 03,2026, Elapsed time: 0:00:00
# Errors: 0, Warnings: 0
# Model Technology ModelSim SE-64 vlog 10.6e Compiler 2018.06 Jun 23 2018
# Start time: 21:36:32 on Jun 03,2026
# vlog ../rtl/its_transform_engine.v 
# -- Compiling module its_transform_engine
# 
# Top level modules:
# 	its_transform_engine
# End time: 21:36:32 on Jun 03,2026, Elapsed time: 0:00:00
# Errors: 0, Warnings: 0
# Model Technology ModelSim SE-64 vlog 10.6e Compiler 2018.06 Jun 23 2018
# Start time: 21:36:32 on Jun 03,2026
# vlog ../rtl/its_lfnst.v 
# -- Compiling module its_lfnst
# 
# Top level modules:
# 	its_lfnst
# End time: 21:36:32 on Jun 03,2026, Elapsed time: 0:00:00
# Errors: 0, Warnings: 0
# Model Technology ModelSim SE-64 vlog 10.6e Compiler 2018.06 Jun 23 2018
# Start time: 21:36:32 on Jun 03,2026
# vlog ../rtl/its_output_ctrl.v 
# -- Compiling module its_output_ctrl
# 
# Top level modules:
# 	its_output_ctrl
# End time: 21:36:32 on Jun 03,2026, Elapsed time: 0:00:00
# Errors: 0, Warnings: 0
# Model Technology ModelSim SE-64 vlog 10.6e Compiler 2018.06 Jun 23 2018
# Start time: 21:36:32 on Jun 03,2026
# vlog ../rtl/its_top.v 
# -- Compiling module its_top
# 
# Top level modules:
# 	its_top
# End time: 21:36:32 on Jun 03,2026, Elapsed time: 0:00:00
# Errors: 0, Warnings: 0
# Model Technology ModelSim SE-64 vlog 10.6e Compiler 2018.06 Jun 23 2018
# Start time: 21:36:32 on Jun 03,2026
# vlog ../tb/its_tb.v 
# -- Compiling module its_tb
# 
# Top level modules:
# 	its_tb
# End time: 21:36:32 on Jun 03,2026, Elapsed time: 0:00:00
# Errors: 0, Warnings: 0
# vsim -t 1ps work.its_tb 
# Start time: 21:36:32 on Jun 03,2026
# ** Note: (vsim-3813) Design is being optimized due to module recompilation...
# //  ModelSim SE-64 10.6e Jun 23 2018
# //
# //  Copyright 1991-2018 Mentor Graphics Corporation
# //  All Rights Reserved.
# //
# //  ModelSim SE-64 and its associated documentation contain trade
# //  secrets and commercial or financial information that are the property of
# //  Mentor Graphics Corporation and are privileged, confidential,
# //  and exempt from disclosure under the Freedom of Information Act,
# //  5 U.S.C. Section 552. Furthermore, this information
# //  is prohibited from disclosure under the Trade Secrets Act,
# //  18 U.S.C. Section 1905.
# //
# Loading work.its_tb(fast)
# [11000] top=0 row_eng=0 row_done=0 pf_row=0 pf_col=0 pf2c=0 pf2c_d=0 comp_col=0 comp_base=0 mac_final=0 out_cnt=0 out_vld=0 col_out_vld=0
# [13000] top=0 row_eng=0 row_done=0 pf_row=0 pf_col=0 pf2c=0 pf2c_d=0 comp_col=0 comp_base=0 mac_final=0 out_cnt=0 out_vld=0 col_out_vld=0
# [15000] top=0 row_eng=0 row_done=0 pf_row=0 pf_col=0 pf2c=0 pf2c_d=0 comp_col=0 comp_base=0 mac_final=0 out_cnt=0 out_vld=0 col_out_vld=0
# [17000] top=0 row_eng=0 row_done=0 pf_row=0 pf_col=0 pf2c=0 pf2c_d=0 comp_col=0 comp_base=0 mac_final=0 out_cnt=0 out_vld=0 col_out_vld=0
# [19000] top=0 row_eng=0 row_done=0 pf_row=0 pf_col=0 pf2c=0 pf2c_d=0 comp_col=0 comp_base=0 mac_final=0 out_cnt=0 out_vld=0 col_out_vld=0
# 
# === DCT2 8x8 ===
#   Loaded 2 inputs, 64 expected outputs
# [21000] top=0 row_eng=0 row_done=0 pf_row=0 pf_col=0 pf2c=0 pf2c_d=0 comp_col=0 comp_base=0 mac_final=0 out_cnt=0 out_vld=0 col_out_vld=0
# [23000] top=0 row_eng=0 row_done=0 pf_row=0 pf_col=0 pf2c=0 pf2c_d=0 comp_col=0 comp_base=0 mac_final=0 out_cnt=0 out_vld=0 col_out_vld=0
# [25000] top=1 row_eng=0 row_done=0 pf_row=0 pf_col=0 pf2c=0 pf2c_d=0 comp_col=0 comp_base=0 mac_final=0 out_cnt=0 out_vld=0 col_out_vld=0
# [27000] top=1 row_eng=0 row_done=0 pf_row=0 pf_col=0 pf2c=0 pf2c_d=0 comp_col=0 comp_base=0 mac_final=0 out_cnt=0 out_vld=0 col_out_vld=0
# [29000] top=1 row_eng=0 row_done=0 pf_row=0 pf_col=0 pf2c=0 pf2c_d=0 comp_col=0 comp_base=0 mac_final=0 out_cnt=0 out_vld=0 col_out_vld=0
# [31000] top=1 row_eng=0 row_done=0 pf_row=0 pf_col=0 pf2c=0 pf2c_d=0 comp_col=0 comp_base=0 mac_final=0 out_cnt=0 out_vld=0 col_out_vld=0
# [33000] top=1 row_eng=0 row_done=0 pf_row=0 pf_col=0 pf2c=0 pf2c_d=0 comp_col=0 comp_base=0 mac_final=0 out_cnt=0 out_vld=0 col_out_vld=0
# [35000] top=1 row_eng=0 row_done=0 pf_row=0 pf_col=0 pf2c=0 pf2c_d=0 comp_col=0 comp_base=0 mac_final=0 out_cnt=0 out_vld=0 col_out_vld=0
# [37000] top=1 row_eng=0 row_done=0 pf_row=0 pf_col=0 pf2c=0 pf2c_d=0 comp_col=0 comp_base=0 mac_final=0 out_cnt=0 out_vld=0 col_out_vld=0
# [39000] top=1 row_eng=0 row_done=0 pf_row=0 pf_col=0 pf2c=0 pf2c_d=0 comp_col=0 comp_base=0 mac_final=0 out_cnt=0 out_vld=0 col_out_vld=0
# [41000] top=1 row_eng=0 row_done=0 pf_row=0 pf_col=0 pf2c=0 pf2c_d=0 comp_col=0 comp_base=0 mac_final=0 out_cnt=0 out_vld=0 col_out_vld=0
# [43000] top=1 row_eng=0 row_done=0 pf_row=0 pf_col=0 pf2c=0 pf2c_d=0 comp_col=0 comp_base=0 mac_final=0 out_cnt=0 out_vld=0 col_out_vld=0
# [45000] top=1 row_eng=0 row_done=0 pf_row=0 pf_col=0 pf2c=0 pf2c_d=0 comp_col=0 comp_base=0 mac_final=0 out_cnt=0 out_vld=0 col_out_vld=0
# [47000] top=1 row_eng=0 row_done=0 pf_row=0 pf_col=0 pf2c=0 pf2c_d=0 comp_col=0 comp_base=0 mac_final=0 out_cnt=0 out_vld=0 col_out_vld=0
# [49000] top=1 row_eng=0 row_done=0 pf_row=0 pf_col=0 pf2c=0 pf2c_d=0 comp_col=0 comp_base=0 mac_final=0 out_cnt=0 out_vld=0 col_out_vld=0
# [51000] top=1 row_eng=0 row_done=0 pf_row=0 pf_col=0 pf2c=0 pf2c_d=0 comp_col=0 comp_base=0 mac_final=0 out_cnt=0 out_vld=0 col_out_vld=0
# [53000] top=1 row_eng=0 row_done=0 pf_row=0 pf_col=0 pf2c=0 pf2c_d=0 comp_col=0 comp_base=0 mac_final=0 out_cnt=0 out_vld=0 col_out_vld=0
# [55000] top=1 row_eng=0 row_done=0 pf_row=0 pf_col=0 pf2c=0 pf2c_d=0 comp_col=0 comp_base=0 mac_final=0 out_cnt=0 out_vld=0 col_out_vld=0
# [57000] top=1 row_eng=0 row_done=0 pf_row=0 pf_col=0 pf2c=0 pf2c_d=0 comp_col=0 comp_base=0 mac_final=0 out_cnt=0 out_vld=0 col_out_vld=0
# [59000] top=1 row_eng=0 row_done=0 pf_row=0 pf_col=0 pf2c=0 pf2c_d=0 comp_col=0 comp_base=0 mac_final=0 out_cnt=0 out_vld=0 col_out_vld=0
# [61000] top=1 row_eng=0 row_done=0 pf_row=0 pf_col=0 pf2c=0 pf2c_d=0 comp_col=0 comp_base=0 mac_final=0 out_cnt=0 out_vld=0 col_out_vld=0
# [63000] top=1 row_eng=0 row_done=0 pf_row=0 pf_col=0 pf2c=0 pf2c_d=0 comp_col=0 comp_base=0 mac_final=0 out_cnt=0 out_vld=0 col_out_vld=0
# [65000] top=1 row_eng=0 row_done=0 pf_row=0 pf_col=0 pf2c=0 pf2c_d=0 comp_col=0 comp_base=0 mac_final=0 out_cnt=0 out_vld=0 col_out_vld=0
# [67000] top=1 row_eng=0 row_done=0 pf_row=0 pf_col=0 pf2c=0 pf2c_d=0 comp_col=0 comp_base=0 mac_final=0 out_cnt=0 out_vld=0 col_out_vld=0
# [69000] top=1 row_eng=0 row_done=0 pf_row=0 pf_col=0 pf2c=0 pf2c_d=0 comp_col=0 comp_base=0 mac_final=0 out_cnt=0 out_vld=0 col_out_vld=0
# [71000] top=2 row_eng=0 row_done=0 pf_row=0 pf_col=0 pf2c=0 pf2c_d=0 comp_col=0 comp_base=0 mac_final=0 out_cnt=0 out_vld=0 col_out_vld=0
# [73000] top=3 row_eng=1 row_done=0 pf_row=0 pf_col=0 pf2c=0 pf2c_d=0 comp_col=0 comp_base=0 mac_final=0 out_cnt=0 out_vld=0 col_out_vld=0
# [75000] top=3 row_eng=1 row_done=0 pf_row=0 pf_col=0 pf2c=0 pf2c_d=0 comp_col=0 comp_base=0 mac_final=0 out_cnt=0 out_vld=0 col_out_vld=0
# [77000] top=3 row_eng=1 row_done=0 pf_row=0 pf_col=0 pf2c=0 pf2c_d=0 comp_col=0 comp_base=0 mac_final=0 out_cnt=0 out_vld=0 col_out_vld=0
# [79000] top=3 row_eng=1 row_done=0 pf_row=0 pf_col=0 pf2c=0 pf2c_d=0 comp_col=0 comp_base=0 mac_final=0 out_cnt=0 out_vld=0 col_out_vld=0
# [81000] top=3 row_eng=1 row_done=0 pf_row=0 pf_col=0 pf2c=0 pf2c_d=0 comp_col=0 comp_base=0 mac_final=0 out_cnt=0 out_vld=0 col_out_vld=0
# [83000] top=3 row_eng=1 row_done=0 pf_row=0 pf_col=0 pf2c=0 pf2c_d=0 comp_col=0 comp_base=0 mac_final=0 out_cnt=0 out_vld=0 col_out_vld=0
# [85000] top=3 row_eng=1 row_done=0 pf_row=0 pf_col=0 pf2c=0 pf2c_d=0 comp_col=0 comp_base=0 mac_final=0 out_cnt=0 out_vld=0 col_out_vld=0
# [87000] top=3 row_eng=1 row_done=0 pf_row=0 pf_col=0 pf2c=0 pf2c_d=0 comp_col=0 comp_base=0 mac_final=0 out_cnt=0 out_vld=0 col_out_vld=0
# [89000] top=3 row_eng=2 row_done=0 pf_row=0 pf_col=0 pf2c=0 pf2c_d=0 comp_col=0 comp_base=0 mac_final=0 out_cnt=0 out_vld=0 col_out_vld=0
# [91000] top=3 row_eng=2 row_done=0 pf_row=0 pf_col=1 pf2c=0 pf2c_d=0 comp_col=0 comp_base=0 mac_final=0 out_cnt=0 out_vld=0 col_out_vld=0
# [93000] top=3 row_eng=2 row_done=0 pf_row=0 pf_col=2 pf2c=0 pf2c_d=0 comp_col=0 comp_base=0 mac_final=0 out_cnt=0 out_vld=0 col_out_vld=0
# [95000] top=3 row_eng=2 row_done=0 pf_row=0 pf_col=3 pf2c=0 pf2c_d=0 comp_col=0 comp_base=0 mac_final=0 out_cnt=0 out_vld=0 col_out_vld=0
# [97000] top=3 row_eng=2 row_done=0 pf_row=0 pf_col=4 pf2c=0 pf2c_d=0 comp_col=0 comp_base=0 mac_final=0 out_cnt=0 out_vld=0 col_out_vld=0
# [99000] top=3 row_eng=2 row_done=0 pf_row=0 pf_col=5 pf2c=0 pf2c_d=0 comp_col=0 comp_base=0 mac_final=0 out_cnt=0 out_vld=0 col_out_vld=0
# [101000] top=3 row_eng=2 row_done=0 pf_row=0 pf_col=6 pf2c=0 pf2c_d=0 comp_col=0 comp_base=0 mac_final=0 out_cnt=0 out_vld=0 col_out_vld=0
# [103000] top=3 row_eng=2 row_done=0 pf_row=0 pf_col=7 pf2c=0 pf2c_d=0 comp_col=0 comp_base=0 mac_final=0 out_cnt=0 out_vld=0 col_out_vld=0
# [105000] top=3 row_eng=2 row_done=0 pf_row=1 pf_col=7 pf2c=0 pf2c_d=0 comp_col=0 comp_base=0 mac_final=0 out_cnt=0 out_vld=0 col_out_vld=0
# [107000] top=3 row_eng=2 row_done=0 pf_row=2 pf_col=7 pf2c=0 pf2c_d=0 comp_col=0 comp_base=0 mac_final=0 out_cnt=0 out_vld=0 col_out_vld=0
# [109000] top=3 row_eng=2 row_done=0 pf_row=3 pf_col=7 pf2c=1 pf2c_d=0 comp_col=0 comp_base=0 mac_final=0 out_cnt=0 out_vld=0 col_out_vld=0
# [111000] top=3 row_eng=3 row_done=0 pf_row=3 pf_col=7 pf2c=0 pf2c_d=1 comp_col=0 comp_base=0 mac_final=0 out_cnt=0 out_vld=0 col_out_vld=0
# [113000] top=3 row_eng=3 row_done=0 pf_row=3 pf_col=7 pf2c=0 pf2c_d=0 comp_col=1 comp_base=0 mac_final=0 out_cnt=0 out_vld=0 col_out_vld=0
# [115000] top=3 row_eng=3 row_done=0 pf_row=3 pf_col=7 pf2c=0 pf2c_d=0 comp_col=2 comp_base=0 mac_final=0 out_cnt=0 out_vld=0 col_out_vld=0
# [117000] top=3 row_eng=3 row_done=0 pf_row=3 pf_col=7 pf2c=0 pf2c_d=0 comp_col=3 comp_base=0 mac_final=0 out_cnt=0 out_vld=0 col_out_vld=0
# [119000] top=3 row_eng=3 row_done=0 pf_row=3 pf_col=7 pf2c=0 pf2c_d=0 comp_col=4 comp_base=0 mac_final=0 out_cnt=0 out_vld=0 col_out_vld=0
# [121000] top=3 row_eng=3 row_done=0 pf_row=3 pf_col=7 pf2c=0 pf2c_d=0 comp_col=5 comp_base=0 mac_final=0 out_cnt=0 out_vld=0 col_out_vld=0
# [123000] top=3 row_eng=3 row_done=0 pf_row=3 pf_col=7 pf2c=0 pf2c_d=0 comp_col=6 comp_base=0 mac_final=0 out_cnt=0 out_vld=0 col_out_vld=0
# [125000] top=3 row_eng=3 row_done=0 pf_row=3 pf_col=7 pf2c=0 pf2c_d=0 comp_col=7 comp_base=0 mac_final=0 out_cnt=0 out_vld=0 col_out_vld=0
# [127000] top=3 row_eng=2 row_done=0 pf_row=0 pf_col=0 pf2c=0 pf2c_d=0 comp_col=0 comp_base=4 mac_final=1 out_cnt=0 out_vld=0 col_out_vld=0
# [129000] top=3 row_eng=2 row_done=0 pf_row=0 pf_col=1 pf2c=0 pf2c_d=0 comp_col=0 comp_base=4 mac_final=0 out_cnt=0 out_vld=0 col_out_vld=0
# [131000] top=3 row_eng=2 row_done=0 pf_row=0 pf_col=2 pf2c=0 pf2c_d=0 comp_col=0 comp_base=4 mac_final=0 out_cnt=0 out_vld=0 col_out_vld=0
# [133000] top=3 row_eng=2 row_done=0 pf_row=0 pf_col=3 pf2c=0 pf2c_d=0 comp_col=0 comp_base=4 mac_final=0 out_cnt=0 out_vld=0 col_out_vld=0
# [135000] top=3 row_eng=2 row_done=0 pf_row=0 pf_col=4 pf2c=0 pf2c_d=0 comp_col=0 comp_base=4 mac_final=0 out_cnt=0 out_vld=0 col_out_vld=0
# [137000] top=3 row_eng=2 row_done=0 pf_row=0 pf_col=5 pf2c=0 pf2c_d=0 comp_col=0 comp_base=4 mac_final=0 out_cnt=0 out_vld=0 col_out_vld=0
# [139000] top=3 row_eng=2 row_done=0 pf_row=0 pf_col=6 pf2c=0 pf2c_d=0 comp_col=0 comp_base=4 mac_final=0 out_cnt=0 out_vld=0 col_out_vld=0
# [141000] top=3 row_eng=2 row_done=0 pf_row=0 pf_col=7 pf2c=0 pf2c_d=0 comp_col=0 comp_base=4 mac_final=0 out_cnt=0 out_vld=0 col_out_vld=0
# [143000] top=3 row_eng=2 row_done=0 pf_row=1 pf_col=7 pf2c=0 pf2c_d=0 comp_col=0 comp_base=4 mac_final=0 out_cnt=0 out_vld=0 col_out_vld=0
# [145000] top=3 row_eng=2 row_done=0 pf_row=2 pf_col=7 pf2c=0 pf2c_d=0 comp_col=0 comp_base=4 mac_final=0 out_cnt=0 out_vld=0 col_out_vld=0
# [147000] top=3 row_eng=2 row_done=0 pf_row=3 pf_col=7 pf2c=1 pf2c_d=0 comp_col=0 comp_base=4 mac_final=0 out_cnt=0 out_vld=0 col_out_vld=0
# [149000] top=3 row_eng=3 row_done=0 pf_row=3 pf_col=7 pf2c=0 pf2c_d=1 comp_col=0 comp_base=4 mac_final=0 out_cnt=0 out_vld=0 col_out_vld=0
# [151000] top=3 row_eng=3 row_done=0 pf_row=3 pf_col=7 pf2c=0 pf2c_d=0 comp_col=1 comp_base=4 mac_final=0 out_cnt=0 out_vld=0 col_out_vld=0
# [153000] top=3 row_eng=3 row_done=0 pf_row=3 pf_col=7 pf2c=0 pf2c_d=0 comp_col=2 comp_base=4 mac_final=0 out_cnt=0 out_vld=0 col_out_vld=0
# [155000] top=3 row_eng=3 row_done=0 pf_row=3 pf_col=7 pf2c=0 pf2c_d=0 comp_col=3 comp_base=4 mac_final=0 out_cnt=0 out_vld=0 col_out_vld=0
# [157000] top=3 row_eng=3 row_done=0 pf_row=3 pf_col=7 pf2c=0 pf2c_d=0 comp_col=4 comp_base=4 mac_final=0 out_cnt=0 out_vld=0 col_out_vld=0
# [159000] top=3 row_eng=3 row_done=0 pf_row=3 pf_col=7 pf2c=0 pf2c_d=0 comp_col=5 comp_base=4 mac_final=0 out_cnt=0 out_vld=0 col_out_vld=0
# [161000] top=3 row_eng=3 row_done=0 pf_row=3 pf_col=7 pf2c=0 pf2c_d=0 comp_col=6 comp_base=4 mac_final=0 out_cnt=0 out_vld=0 col_out_vld=0
# [163000] top=3 row_eng=3 row_done=0 pf_row=3 pf_col=7 pf2c=0 pf2c_d=0 comp_col=7 comp_base=4 mac_final=0 out_cnt=0 out_vld=0 col_out_vld=0
# [165000] top=3 row_eng=3 row_done=0 pf_row=3 pf_col=7 pf2c=0 pf2c_d=0 comp_col=0 comp_base=8 mac_final=1 out_cnt=0 out_vld=0 col_out_vld=0
# [167000] top=3 row_eng=4 row_done=0 pf_row=3 pf_col=7 pf2c=0 pf2c_d=0 comp_col=1 comp_base=8 mac_final=0 out_cnt=0 out_vld=0 col_out_vld=0
# [169000] top=3 row_eng=4 row_done=0 pf_row=3 pf_col=7 pf2c=0 pf2c_d=0 comp_col=0 comp_base=8 mac_final=0 out_cnt=1 out_vld=1 col_out_vld=0
# [171000] top=3 row_eng=4 row_done=0 pf_row=3 pf_col=7 pf2c=0 pf2c_d=0 comp_col=0 comp_base=8 mac_final=0 out_cnt=2 out_vld=1 col_out_vld=0
# [173000] top=3 row_eng=4 row_done=0 pf_row=3 pf_col=7 pf2c=0 pf2c_d=0 comp_col=0 comp_base=8 mac_final=0 out_cnt=3 out_vld=1 col_out_vld=0
# [175000] top=3 row_eng=4 row_done=0 pf_row=3 pf_col=7 pf2c=0 pf2c_d=0 comp_col=0 comp_base=8 mac_final=0 out_cnt=4 out_vld=1 col_out_vld=0
# [177000] top=3 row_eng=4 row_done=0 pf_row=3 pf_col=7 pf2c=0 pf2c_d=0 comp_col=0 comp_base=8 mac_final=0 out_cnt=5 out_vld=1 col_out_vld=0
# [179000] top=3 row_eng=4 row_done=0 pf_row=3 pf_col=7 pf2c=0 pf2c_d=0 comp_col=0 comp_base=8 mac_final=0 out_cnt=6 out_vld=1 col_out_vld=0
# [181000] top=3 row_eng=4 row_done=0 pf_row=3 pf_col=7 pf2c=0 pf2c_d=0 comp_col=0 comp_base=8 mac_final=0 out_cnt=7 out_vld=1 col_out_vld=0
# [183000] top=3 row_eng=0 row_done=1 pf_row=3 pf_col=7 pf2c=0 pf2c_d=0 comp_col=0 comp_base=8 mac_final=0 out_cnt=8 out_vld=1 col_out_vld=0
# [185000] top=2 row_eng=0 row_done=0 pf_row=3 pf_col=7 pf2c=0 pf2c_d=0 comp_col=0 comp_base=8 mac_final=0 out_cnt=8 out_vld=0 col_out_vld=0
# [187000] top=3 row_eng=1 row_done=0 pf_row=0 pf_col=0 pf2c=0 pf2c_d=0 comp_col=0 comp_base=8 mac_final=0 out_cnt=0 out_vld=0 col_out_vld=0
# [189000] top=3 row_eng=1 row_done=0 pf_row=0 pf_col=0 pf2c=0 pf2c_d=0 comp_col=0 comp_base=8 mac_final=0 out_cnt=0 out_vld=0 col_out_vld=0
# [191000] top=3 row_eng=1 row_done=0 pf_row=0 pf_col=0 pf2c=0 pf2c_d=0 comp_col=0 comp_base=8 mac_final=0 out_cnt=0 out_vld=0 col_out_vld=0
# [193000] top=3 row_eng=1 row_done=0 pf_row=0 pf_col=0 pf2c=0 pf2c_d=0 comp_col=0 comp_base=8 mac_final=0 out_cnt=0 out_vld=0 col_out_vld=0
# [195000] top=3 row_eng=1 row_done=0 pf_row=0 pf_col=0 pf2c=0 pf2c_d=0 comp_col=0 comp_base=8 mac_final=0 out_cnt=0 out_vld=0 col_out_vld=0
# [197000] top=3 row_eng=1 row_done=0 pf_row=0 pf_col=0 pf2c=0 pf2c_d=0 comp_col=0 comp_base=8 mac_final=0 out_cnt=0 out_vld=0 col_out_vld=0
# [199000] top=3 row_eng=1 row_done=0 pf_row=0 pf_col=0 pf2c=0 pf2c_d=0 comp_col=0 comp_base=8 mac_final=0 out_cnt=0 out_vld=0 col_out_vld=0
# [201000] top=3 row_eng=1 row_done=0 pf_row=0 pf_col=0 pf2c=0 pf2c_d=0 comp_col=0 comp_base=8 mac_final=0 out_cnt=0 out_vld=0 col_out_vld=0
# [203000] top=3 row_eng=2 row_done=0 pf_row=0 pf_col=0 pf2c=0 pf2c_d=0 comp_col=0 comp_base=0 mac_final=0 out_cnt=0 out_vld=0 col_out_vld=0
# [205000] top=3 row_eng=2 row_done=0 pf_row=0 pf_col=1 pf2c=0 pf2c_d=0 comp_col=0 comp_base=0 mac_final=0 out_cnt=0 out_vld=0 col_out_vld=0
# [207000] top=3 row_eng=2 row_done=0 pf_row=0 pf_col=2 pf2c=0 pf2c_d=0 comp_col=0 comp_base=0 mac_final=0 out_cnt=0 out_vld=0 col_out_vld=0
# [209000] top=3 row_eng=2 row_done=0 pf_row=0 pf_col=3 pf2c=0 pf2c_d=0 comp_col=0 comp_base=0 mac_final=0 out_cnt=0 out_vld=0 col_out_vld=0
# [211000] top=3 row_eng=2 row_done=0 pf_row=0 pf_col=4 pf2c=0 pf2c_d=0 comp_col=0 comp_base=0 mac_final=0 out_cnt=0 out_vld=0 col_out_vld=0
# [213000] top=3 row_eng=2 row_done=0 pf_row=0 pf_col=5 pf2c=0 pf2c_d=0 comp_col=0 comp_base=0 mac_final=0 out_cnt=0 out_vld=0 col_out_vld=0
# [215000] top=3 row_eng=2 row_done=0 pf_row=0 pf_col=6 pf2c=0 pf2c_d=0 comp_col=0 comp_base=0 mac_final=0 out_cnt=0 out_vld=0 col_out_vld=0
# [217000] top=3 row_eng=2 row_done=0 pf_row=0 pf_col=7 pf2c=0 pf2c_d=0 comp_col=0 comp_base=0 mac_final=0 out_cnt=0 out_vld=0 col_out_vld=0
# [219000] top=3 row_eng=2 row_done=0 pf_row=1 pf_col=7 pf2c=0 pf2c_d=0 comp_col=0 comp_base=0 mac_final=0 out_cnt=0 out_vld=0 col_out_vld=0
# [221000] top=3 row_eng=2 row_done=0 pf_row=2 pf_col=7 pf2c=0 pf2c_d=0 comp_col=0 comp_base=0 mac_final=0 out_cnt=0 out_vld=0 col_out_vld=0
# [223000] top=3 row_eng=2 row_done=0 pf_row=3 pf_col=7 pf2c=1 pf2c_d=0 comp_col=0 comp_base=0 mac_final=0 out_cnt=0 out_vld=0 col_out_vld=0
# [225000] top=3 row_eng=3 row_done=0 pf_row=3 pf_col=7 pf2c=0 pf2c_d=1 comp_col=0 comp_base=0 mac_final=0 out_cnt=0 out_vld=0 col_out_vld=0
# [227000] top=3 row_eng=3 row_done=0 pf_row=3 pf_col=7 pf2c=0 pf2c_d=0 comp_col=1 comp_base=0 mac_final=0 out_cnt=0 out_vld=0 col_out_vld=0
# [229000] top=3 row_eng=3 row_done=0 pf_row=3 pf_col=7 pf2c=0 pf2c_d=0 comp_col=2 comp_base=0 mac_final=0 out_cnt=0 out_vld=0 col_out_vld=0
# [231000] top=3 row_eng=3 row_done=0 pf_row=3 pf_col=7 pf2c=0 pf2c_d=0 comp_col=3 comp_base=0 mac_final=0 out_cnt=0 out_vld=0 col_out_vld=0
# [233000] top=3 row_eng=3 row_done=0 pf_row=3 pf_col=7 pf2c=0 pf2c_d=0 comp_col=4 comp_base=0 mac_final=0 out_cnt=0 out_vld=0 col_out_vld=0
# [235000] top=3 row_eng=3 row_done=0 pf_row=3 pf_col=7 pf2c=0 pf2c_d=0 comp_col=5 comp_base=0 mac_final=0 out_cnt=0 out_vld=0 col_out_vld=0
# [237000] top=3 row_eng=3 row_done=0 pf_row=3 pf_col=7 pf2c=0 pf2c_d=0 comp_col=6 comp_base=0 mac_final=0 out_cnt=0 out_vld=0 col_out_vld=0
# [239000] top=3 row_eng=3 row_done=0 pf_row=3 pf_col=7 pf2c=0 pf2c_d=0 comp_col=7 comp_base=0 mac_final=0 out_cnt=0 out_vld=0 col_out_vld=0
# [241000] top=3 row_eng=2 row_done=0 pf_row=0 pf_col=0 pf2c=0 pf2c_d=0 comp_col=0 comp_base=4 mac_final=1 out_cnt=0 out_vld=0 col_out_vld=0
# [243000] top=3 row_eng=2 row_done=0 pf_row=0 pf_col=1 pf2c=0 pf2c_d=0 comp_col=0 comp_base=4 mac_final=0 out_cnt=0 out_vld=0 col_out_vld=0
# [245000] top=3 row_eng=2 row_done=0 pf_row=0 pf_col=2 pf2c=0 pf2c_d=0 comp_col=0 comp_base=4 mac_final=0 out_cnt=0 out_vld=0 col_out_vld=0
# [247000] top=3 row_eng=2 row_done=0 pf_row=0 pf_col=3 pf2c=0 pf2c_d=0 comp_col=0 comp_base=4 mac_final=0 out_cnt=0 out_vld=0 col_out_vld=0
# [249000] top=3 row_eng=2 row_done=0 pf_row=0 pf_col=4 pf2c=0 pf2c_d=0 comp_col=0 comp_base=4 mac_final=0 out_cnt=0 out_vld=0 col_out_vld=0
# [251000] top=3 row_eng=2 row_done=0 pf_row=0 pf_col=5 pf2c=0 pf2c_d=0 comp_col=0 comp_base=4 mac_final=0 out_cnt=0 out_vld=0 col_out_vld=0
# [253000] top=3 row_eng=2 row_done=0 pf_row=0 pf_col=6 pf2c=0 pf2c_d=0 comp_col=0 comp_base=4 mac_final=0 out_cnt=0 out_vld=0 col_out_vld=0
# [255000] top=3 row_eng=2 row_done=0 pf_row=0 pf_col=7 pf2c=0 pf2c_d=0 comp_col=0 comp_base=4 mac_final=0 out_cnt=0 out_vld=0 col_out_vld=0
# [257000] top=3 row_eng=2 row_done=0 pf_row=1 pf_col=7 pf2c=0 pf2c_d=0 comp_col=0 comp_base=4 mac_final=0 out_cnt=0 out_vld=0 col_out_vld=0
# [259000] top=3 row_eng=2 row_done=0 pf_row=2 pf_col=7 pf2c=0 pf2c_d=0 comp_col=0 comp_base=4 mac_final=0 out_cnt=0 out_vld=0 col_out_vld=0
# [261000] top=3 row_eng=2 row_done=0 pf_row=3 pf_col=7 pf2c=1 pf2c_d=0 comp_col=0 comp_base=4 mac_final=0 out_cnt=0 out_vld=0 col_out_vld=0
# [263000] top=3 row_eng=3 row_done=0 pf_row=3 pf_col=7 pf2c=0 pf2c_d=1 comp_col=0 comp_base=4 mac_final=0 out_cnt=0 out_vld=0 col_out_vld=0
# [265000] top=3 row_eng=3 row_done=0 pf_row=3 pf_col=7 pf2c=0 pf2c_d=0 comp_col=1 comp_base=4 mac_final=0 out_cnt=0 out_vld=0 col_out_vld=0
# [267000] top=3 row_eng=3 row_done=0 pf_row=3 pf_col=7 pf2c=0 pf2c_d=0 comp_col=2 comp_base=4 mac_final=0 out_cnt=0 out_vld=0 col_out_vld=0
# [269000] top=3 row_eng=3 row_done=0 pf_row=3 pf_col=7 pf2c=0 pf2c_d=0 comp_col=3 comp_base=4 mac_final=0 out_cnt=0 out_vld=0 col_out_vld=0
# [271000] top=3 row_eng=3 row_done=0 pf_row=3 pf_col=7 pf2c=0 pf2c_d=0 comp_col=4 comp_base=4 mac_final=0 out_cnt=0 out_vld=0 col_out_vld=0
