scripts/its_tb.vcd
$date
	Wed May 20 19:00:38 2026
$end
$version
	ModelSim Version 10.6e
$end
$timescale
	1ps
$end

$scope module its_tb $end

$scope task send_info $end
$upscope $end

$scope task send_data $end
$upscope $end

$scope task wait_output $end
$upscope $end

$scope task wait_done $end
$upscope $end

$scope module u_dut $end
$var reg 13 ! total_points [12:0] $end
$var reg 4 " state [3:0] $end
$var reg 12 # in_wr_cnt [11:0] $end
$var reg 6 $ row_idx [5:0] $end
$var wire 1 % row_out_vld $end
$var reg 12 & tp_wr_cnt [11:0] $end

$scope module u_row_engine $end
$var reg 3 ' state [2:0] $end
$var reg 6 ( result_wr_cnt [5:0] $end
$var reg 3 ) calc_state [2:0] $end

$scope module u_rom $end
$upscope $end
$upscope $end

$scope module u_col_engine $end

$scope module u_rom $end
$upscope $end
$upscope $end
$upscope $end
$upscope $end
$enddefinitions $end
#0
$dumpvars
b0 !
b0 "
b0 #
b0 $
b0 &
b0 '
b0 (
b0 )
0%
$end
#23000
b1 "
b10000 !
#33000
b10 "
b1 #
#35000
b1 '
b1 )
b11 "
#43000
b10 '
#45000
b10 )
#47000
b11 )
#55000
b100 )
#57000
b1 (
b1 )
#59000
b10 )
#61000
b11 )
#69000
b100 )
#71000
b10 (
b1 )
#73000
b10 )
#75000
b11 )
#83000
b100 )
#85000
b11 (
b1 )
#87000
b10 )
#89000
b11 )
#97000
b100 )
#99000
b100 (
b0 )
#101000
b11 '
#103000
1%
#105000
b1 &
#107000
b10 &
#109000
b100 '
b11 &
#111000
b100 &
b10 "
b1 $
b0 '
0%
#113000
b1 '
b0 (
b1 )
b11 "
#121000
b10 '
#123000
b10 )
#125000
b11 )
#133000
b100 )
#135000
b1 (
b1 )
#137000
b10 )
#139000
b11 )
#147000
b100 )
#149000
b10 (
b1 )
#151000
b10 )
#153000
b11 )
#161000
b100 )
#163000
b11 (
b1 )
#165000
b10 )
#167000
b11 )
#175000
b100 )
#177000
b100 (
b0 )
#179000
b11 '
#181000
1%
#183000
b101 &
#185000
b110 &
#187000
b100 '
b111 &
#189000
b1000 &
b10 "
b10 $
b0 '
0%
#191000
b1 '
b0 (
b1 )
b11 "
#199000
b10 '
#201000
b10 )
#203000
b11 )
#211000
b100 )
#213000
b1 (
b1 )
#215000
b10 )
#217000
b11 )
#225000
b100 )
#227000
b10 (
b1 )
#229000
b10 )
#231000
b11 )
#239000
b100 )
#241000
b11 (
b1 )
#243000
b10 )
#245000
b11 )
#253000
b100 )
#255000
b100 (
b0 )
#257000
b11 '
#259000
1%
#261000
b1001 &
#263000
b1010 &
#265000
b1011 &
b100 '
#267000
b10 "
b11 $
b0 '
b1100 &
0%
#269000
b1 '
b0 (
b1 )
b11 "
#277000
b10 '
#279000
b10 )
#281000
b11 )
#289000
b100 )
#291000
b1 (
b1 )
#293000
b10 )
#295000
b11 )
#303000
b100 )
#305000
b10 (
b1 )
#307000
b10 )
#309000
b11 )
#317000
b100 )
#319000
b11 (
b1 )
#321000
b10 )
#323000
b11 )
#331000
b100 )
#333000
b100 (
b0 )
#335000
b11 '
#337000
1%
#339000
b1101 &
#341000
b1110 &
#343000
b1111 &
b100 '
#345000
b100 "
b0 '
b10000 &
0%
#347000
b101 "
b0 $
#423000
b100 "
#425000
b101 "
#501000
b100 "
#503000
b101 "
#579000
b100 "
#581000
b101 "
#657000
b110 "
#669000
b111 "
#671000
b0 "
#695000
b0 #
b1 "
#705000
b1 #
#709000
b10 #
#713000
b11 #
#717000
b10 "
b100 #
#719000
b1 '
b0 (
b1 )
b11 "
#727000
b10 '
#729000
b10 )
#731000
b11 )
#739000
b100 )
#741000
b1 (
b1 )
#743000
b10 )
#745000
b11 )
#753000
b100 )
#755000
b10 (
b1 )
#757000
b10 )
#759000
b11 )
#767000
b100 )
#769000
b11 (
b1 )
#771000
b10 )
#773000
b11 )
#781000
b100 )
#783000
b100 (
b0 )
#785000
b11 '
#787000
1%
#789000
b10001 &
#791000
b10010 &
#793000
b100 '
b10011 &
#795000
b10 "
b1 $
b10100 &
b0 '
0%
#797000
b1 '
b0 (
b1 )
b11 "
#805000
b10 '
#807000
b10 )
#809000
b11 )
#817000
b100 )
#819000
b1 (
b1 )
#821000
b10 )
#823000
b11 )
#831000
b100 )
#833000
b10 (
b1 )
#835000
b10 )
#837000
b11 )
#845000
b100 )
#847000
b11 (
b1 )
#849000
b10 )
#851000
b11 )
#859000
b100 )
#861000
b100 (
b0 )
#863000
b11 '
#865000
1%
#867000
b10101 &
#869000
b10110 &
#871000
b100 '
b10111 &
#873000
b10 "
b10 $
b11000 &
b0 '
0%
#875000
b1 '
b0 (
b1 )
b11 "
#883000
b10 '
#885000
b10 )
#887000
b11 )
#895000
b100 )
#897000
b1 (
b1 )
#899000
b10 )
#901000
b11 )
#909000
b100 )
#911000
b10 (
b1 )
#913000
b10 )
#915000
b11 )
#923000
b100 )
#925000
b11 (
b1 )
#927000
b10 )
#929000
b11 )
#937000
b100 )
#939000
b100 (
b0 )
#941000
b11 '
#943000
1%
#945000
b11001 &
#947000
b11010 &
#949000
b100 '
b11011 &
#951000
b11100 &
b10 "
b11 $
b0 '
0%
#953000
b1 '
b0 (
b1 )
b11 "
#961000
b10 '
#963000
b10 )
#965000
b11 )
#973000
b100 )
#975000
b1 (
b1 )
#977000
b10 )
#979000
b11 )
#987000
b100 )
#989000
b10 (
b1 )
#991000
b10 )
#993000
b11 )
#1001000
b100 )
#1003000
b11 (
b1 )
#1005000
b10 )
#1007000
b11 )
#1015000
b100 )
#1017000
b100 (
b0 )
#1019000
b11 '
#1021000
1%
#1023000
b11101 &
#1025000
b11110 &
#1027000
b11111 &
b100 '
#1029000
b100 "
b0 '
b100000 &
0%
#1031000
b101 "
b0 $
#1107000
b100 "
#1109000
b101 "
#1185000
b100 "
#1187000
b101 "
#1263000
b100 "
#1265000
b101 "
#1341000
b110 "
#1353000
b111 "
#1355000
b0 "
#1379000
b0 #
b1 "
#1389000
b1 #
#1393000
b10 #
#1397000
b11 #
#1401000
b10 "
b100 #
#1403000
b1 '
b0 (
b1 )
b11 "
#1411000
b10 '
#1413000
b10 )
#1415000
b11 )
#1423000
b100 )
#1425000
b1 (
b1 )
#1427000
b10 )
#1429000
b11 )
#1437000
b100 )
#1439000
b10 (
b1 )
#1441000
b10 )
#1443000
b11 )
#1451000
b100 )
#1453000
b11 (
b1 )
#1455000
b10 )
#1457000
b11 )
#1465000
b100 )
#1467000
b100 (
b0 )
#1469000
b11 '
#1471000
1%
#1473000
b100001 &
#1475000
b100010 &
#1477000
b100 '
b100011 &
#1479000
b10 "
b1 $
b100100 &
b0 '
0%
#1481000
b1 '
b0 (
b1 )
b11 "
#1489000
b10 '
#1491000
b10 )
#1493000
b11 )
#1501000
b100 )
#1503000
b1 (
b1 )
#1505000
b10 )
#1507000
b11 )
#1515000
b100 )
#1517000
b10 (
b1 )
#1519000
b10 )
#1521000
b11 )
#1529000
b100 )
#1531000
b11 (
b1 )
#1533000
b10 )
#1535000
b11 )
#1543000
b100 )
#1545000
b100 (
b0 )
#1547000
b11 '
#1549000
1%
#1551000
b100101 &
#1553000
b100110 &
#1555000
b100111 &
b100 '
#1557000
b10 "
b10 $
b0 '
b101000 &
0%
#1559000
b1 '
b0 (
b1 )
b11 "
#1567000
b10 '
#1569000
b10 )
#1571000
b11 )
#1579000
b100 )
#1581000
b1 (
b1 )
#1583000
b10 )
#1585000
b11 )
#1593000
b100 )
#1595000
b10 (
b1 )
#1597000
b10 )
#1599000
b11 )
#1607000
b100 )
#1609000
b11 (
b1 )
#1611000
b10 )
#1613000
b11 )
#1621000
b100 )
#1623000
b100 (
b0 )
#1625000
b11 '
#1627000
1%
#1629000
b101001 &
#1631000
b101010 &
#1633000
b101011 &
b100 '
#1635000
b10 "
b11 $
b0 '
b101100 &
0%
#1637000
b1 '
b0 (
b1 )
b11 "
#1645000
b10 '
#1647000
b10 )
#1649000
b11 )
#1657000
b100 )
#1659000
b1 (
b1 )
#1661000
b10 )
#1663000
b11 )
#1671000
b100 )
#1673000
b10 (
b1 )
#1675000
b10 )
#1677000
b11 )
#1685000
b100 )
#1687000
b11 (
b1 )
#1689000
b10 )
#1691000
b11 )
#1699000
b100 )
#1701000
b100 (
b0 )
#1703000
b11 '
#1705000
1%
#1707000
b101101 &
#1709000
b101110 &
#1711000
b101111 &
b100 '
#1713000
b100 "
b0 '
b110000 &
0%
#1715000
b101 "
b0 $
#1791000
b100 "
#1793000
b101 "
#1869000
b100 "
#1871000
b101 "
#1947000
b100 "
#1949000
b101 "
#2025000
b110 "
#2037000
b111 "
#2039000
b0 "
#2063000
b0 #
b1 "
#2073000
b1 #
#2077000
b10 "
b10 #
#2079000
b1 '
b0 (
b1 )
b11 "
#2087000
b10 '
#2089000
b10 )
#2091000
b11 )
#2099000
b100 )
#2101000
b1 (
b1 )
#2103000
b10 )
#2105000
b11 )
#2113000
b100 )
#2115000
b10 (
b1 )
#2117000
b10 )
#2119000
b11 )
#2127000
b100 )
#2129000
b11 (
b1 )
#2131000
b10 )
#2133000
b11 )
#2141000
b100 )
#2143000
b100 (
b0 )
#2145000
b11 '
#2147000
1%
#2149000
b110001 &
#2151000
b110010 &
#2153000
b100 '
b110011 &
#2155000
b10 "
b1 $
b110100 &
b0 '
0%
#2157000
b1 '
b0 (
b1 )
b11 "
#2165000
b10 '
#2167000
b10 )
#2169000
b11 )
#2177000
b100 )
#2179000
b1 (
b1 )
#2181000
b10 )
#2183000
b11 )
#2191000
b100 )
#2193000
b10 (
b1 )
#2195000
b10 )
#2197000
b11 )
#2205000
b100 )
#2207000
b11 (
b1 )
#2209000
b10 )
#2211000
b11 )
#2219000
b100 )
#2221000
b100 (
b0 )
#2223000
b11 '
#2225000
1%
#2227000
b110101 &
#2229000
b110110 &
#2231000
b100 '
b110111 &
#2233000
b111000 &
b10 "
b10 $
b0 '
0%
#2235000
b1 '
b0 (
b1 )
b11 "
#2243000
b10 '
#2245000
b10 )
#2247000
b11 )
#2255000
b100 )
#2257000
b1 (
b1 )
#2259000
b10 )
#2261000
b11 )
#2269000
b100 )
#2271000
b10 (
b1 )
#2273000
b10 )
#2275000
b11 )
#2283000
b100 )
#2285000
b11 (
b1 )
#2287000
b10 )
#2289000
b11 )
#2297000
b100 )
#2299000
b100 (
b0 )
#2301000
b11 '
#2303000
1%
#2305000
b111001 &
#2307000
b111010 &
#2309000
b111011 &
b100 '
#2311000
b10 "
b11 $
b0 '
b111100 &
0%
#2313000
b1 '
b0 (
b1 )
b11 "
#2321000
b10 '
#2323000
b10 )
#2325000
b11 )
#2333000
b100 )
#2335000
b1 (
b1 )
#2337000
b10 )
#2339000
b11 )
#2347000
b100 )
#2349000
b10 (
b1 )
#2351000
b10 )
#2353000
b11 )
#2361000
b100 )
#2363000
b11 (
b1 )
#2365000
b10 )
#2367000
b11 )
#2375000
b100 )
#2377000
b100 (
b0 )
#2379000
b11 '
#2381000
1%
#2383000
b111101 &
#2385000
b111110 &
#2387000
b111111 &
b100 '
#2389000
b100 "
b0 '
b1000000 &
0%
#2391000
b101 "
b0 $
#2467000
b100 "
#2469000
b101 "
#2545000
b100 "
#2547000
b101 "
#2623000
b100 "
#2625000
b101 "
#2701000
b110 "
#2713000
b111 "
#2715000
b0 "
#2739000
b0 #
b1 "
b1000000 !
#2749000
b1 #
#2753000
b10 #
#2757000
b11 #
#2761000
b10 "
b100 #
#2763000
b1 '
b0 (
b1 )
b11 "
#2779000
b10 '
#2781000
b10 )
#2783000
b11 )
#2799000
b100 )
#2801000
b1 (
b1 )
#2803000
b10 )
#2805000
b11 )
#2821000
b100 )
#2823000
b10 (
b1 )
#2825000
b10 )
#2827000
b11 )
#2843000
b100 )
#2845000
b11 (
b1 )
#2847000
b10 )
#2849000
b11 )
#2865000
b100 )
#2867000
b100 (
b1 )
#2869000
b10 )
#2871000
b11 )
#2887000
b100 )
#2889000
b101 (
b1 )
#2891000
b10 )
#2893000
b11 )
#2909000
b100 )
#2911000
b110 (
b1 )
#2913000
b10 )
#2915000
b11 )
#2931000
b100 )
#2933000
b111 (
b1 )
#2935000
b10 )
#2937000
b11 )
#2953000
b100 )
#2955000
b1000 (
b0 )
#2957000
b11 '
#2959000
1%
#2961000
b1000001 &
#2963000
b1000010 &
#2965000
b1000011 &
#2967000
b1000100 &
#2969000
b1000101 &
#2971000
b1000110 &
#2973000
b100 '
b1000111 &
#2975000
b10 "
b1 $
b1001000 &
b0 '
0%
#2977000
b1 '
b0 (
b1 )
b11 "
#2993000
b10 '
#2995000
b10 )
#2997000
b11 )
#3013000
b100 )
#3015000
b1 (
b1 )
#3017000
b10 )
#3019000
b11 )
#3035000
b100 )
#3037000
b10 (
b1 )
#3039000
b10 )
#3041000
b11 )
#3057000
b100 )
#3059000
b11 (
b1 )
#3061000
b10 )
#3063000
b11 )
#3079000
b100 )
#3081000
b100 (
b1 )
#3083000
b10 )
#3085000
b11 )
#3101000
b100 )
#3103000
b101 (
b1 )
#3105000
b10 )
#3107000
b11 )
#3123000
b100 )
#3125000
b110 (
b1 )
#3127000
b10 )
#3129000
b11 )
#3145000
b100 )
#3147000
b111 (
b1 )
#3149000
b10 )
#3151000
b11 )
#3167000
b100 )
#3169000
b1000 (
b0 )
#3171000
b11 '
#3173000
1%
#3175000
b1001001 &
#3177000
b1001010 &
#3179000
b1001011 &
#3181000
b1001100 &
#3183000
b1001101 &
#3185000
b1001110 &
#3187000
b100 '
b1001111 &
#3189000
b10 "
b10 $
b1010000 &
b0 '
0%
#3191000
b1 '
b0 (
b1 )
b11 "
#3207000
b10 '
#3209000
b10 )
#3211000
b11 )
#3227000
b100 )
#3229000
b1 (
b1 )
#3231000
b10 )
#3233000
b11 )
#3249000
b100 )
#3251000
b10 (
b1 )
#3253000
b10 )
#3255000
b11 )
#3271000
b100 )
#3273000
b11 (
b1 )
#3275000
b10 )
#3277000
b11 )
#3293000
b100 )
#3295000
b100 (
b1 )
#3297000
b10 )
#3299000
b11 )
#3315000
b100 )
#3317000
b101 (
b1 )
#3319000
b10 )
#3321000
b11 )
#3337000
b100 )
#3339000
b110 (
b1 )
#3341000
b10 )
#3343000
b11 )
#3359000
b100 )
#3361000
b111 (
b1 )
#3363000
b10 )
#3365000
b11 )
#3381000
b100 )
#3383000
b1000 (
b0 )
#3385000
b11 '
#3387000
1%
#3389000
b1010001 &
#3391000
b1010010 &
#3393000
b1010011 &
#3395000
b1010100 &
#3397000
b1010101 &
#3399000
b1010110 &
#3401000
b100 '
b1010111 &
#3403000
b1011000 &
b10 "
b11 $
b0 '
0%
#3405000
b1 '
b0 (
b1 )
b11 "
#3421000
b10 '
#3423000
b10 )
#3425000
b11 )
#3441000
b100 )
#3443000
b1 (
b1 )
#3445000
b10 )
#3447000
b11 )
#3463000
b100 )
#3465000
b10 (
b1 )
#3467000
b10 )
#3469000
b11 )
#3485000
b100 )
#3487000
b11 (
b1 )
#3489000
b10 )
#3491000
b11 )
#3507000
b100 )
#3509000
b100 (
b1 )
#3511000
b10 )
#3513000
b11 )
#3529000
b100 )
#3531000
b101 (
b1 )
#3533000
b10 )
#3535000
b11 )
#3551000
b100 )
#3553000
b110 (
b1 )
#3555000
b10 )
#3557000
b11 )
#3573000
b100 )
#3575000
b111 (
b1 )
#3577000
b10 )
#3579000
b11 )
#3595000
b100 )
#3597000
b1000 (
b0 )
#3599000
b11 '
#3601000
1%
#3603000
b1011001 &
#3605000
b1011010 &
#3607000
b1011011 &
#3609000
b1011100 &
#3611000
b1011101 &
#3613000
b1011110 &
#3615000
b1011111 &
b100 '
#3617000
b10 "
b100 $
b0 '
b1100000 &
0%
#3619000
b1 '
b0 (
b1 )
b11 "
#3635000
b10 '
#3637000
b10 )
#3639000
b11 )
#3655000
b100 )
#3657000
b1 (
b1 )
#3659000
b10 )
#3661000
b11 )
#3677000
b100 )
#3679000
b10 (
b1 )
#3681000
b10 )
#3683000
b11 )
#3699000
b100 )
#3701000
b11 (
b1 )
#3703000
b10 )
#3705000
b11 )
#3721000
b100 )
#3723000
b100 (
b1 )
#3725000
b10 )
#3727000
b11 )
#3743000
b100 )
#3745000
b101 (
b1 )
#3747000
b10 )
#3749000
b11 )
#3765000
b100 )
#3767000
b110 (
b1 )
#3769000
b10 )
#3771000
b11 )
#3787000
b100 )
#3789000
b111 (
b1 )
#3791000
b10 )
#3793000
b11 )
#3809000
b100 )
#3811000
b1000 (
b0 )
#3813000
b11 '
#3815000
1%
#3817000
b1100001 &
#3819000
b1100010 &
#3821000
b1100011 &
#3823000
b1100100 &
#3825000
b1100101 &
#3827000
b1100110 &
#3829000
b1100111 &
b100 '
#3831000
b10 "
b101 $
b0 '
b1101000 &
0%
#3833000
b1 '
b0 (
b1 )
b11 "
#3849000
b10 '
#3851000
b10 )
#3853000
b11 )
#3869000
b100 )
#3871000
b1 (
b1 )
#3873000
b10 )
#3875000
b11 )
#3891000
b100 )
#3893000
b10 (
b1 )
#3895000
b10 )
#3897000
b11 )
#3913000
b100 )
#3915000
b11 (
b1 )
#3917000
b10 )
#3919000
b11 )
#3935000
b100 )
#3937000
b100 (
b1 )
#3939000
b10 )
#3941000
b11 )
#3957000
b100 )
#3959000
b101 (
b1 )
#3961000
b10 )
#3963000
b11 )
#3979000
b100 )
#3981000
b110 (
b1 )
#3983000
b10 )
#3985000
b11 )
#4001000
b100 )
#4003000
b111 (
b1 )
#4005000
b10 )
#4007000
b11 )
#4023000
b100 )
#4025000
b1000 (
b0 )
#4027000
b11 '
#4029000
1%
#4031000
b1101001 &
#4033000
b1101010 &
#4035000
b1101011 &
#4037000
b1101100 &
#4039000
b1101101 &
#4041000
b1101110 &
#4043000
b1101111 &
b100 '
#4045000
b10 "
b110 $
b0 '
b1110000 &
0%
#4047000
b1 '
b0 (
b1 )
b11 "
#4063000
b10 '
#4065000
b10 )
#4067000
b11 )
#4083000
b100 )
#4085000
b1 (
b1 )
#4087000
b10 )
#4089000
b11 )
#4105000
b100 )
#4107000
b10 (
b1 )
#4109000
b10 )
#4111000
b11 )
#4127000
b100 )
#4129000
b11 (
b1 )
#4131000
b10 )
#4133000
b11 )
#4149000
b100 )
#4151000
b100 (
b1 )
#4153000
b10 )
#4155000
b11 )
#4171000
b100 )
#4173000
b101 (
b1 )
#4175000
b10 )
#4177000
b11 )
#4193000
b100 )
#4195000
b110 (
b1 )
#4197000
b10 )
#4199000
b11 )
#4215000
b100 )
#4217000
b111 (
b1 )
#4219000
b10 )
#4221000
b11 )
#4237000
b100 )
#4239000
b1000 (
b0 )
#4241000
b11 '
#4243000
1%
#4245000
b1110001 &
#4247000
b1110010 &
#4249000
b1110011 &
#4251000
b1110100 &
#4253000
b1110101 &
#4255000
b1110110 &
#4257000
b1110111 &
b100 '
#4259000
b10 "
b111 $
b0 '
b1111000 &
0%
#4261000
b1 '
b0 (
b1 )
b11 "
#4277000
b10 '
#4279000
b10 )
#4281000
b11 )
#4297000
b100 )
#4299000
b1 (
b1 )
#4301000
b10 )
#4303000
b11 )
#4319000
b100 )
#4321000
b10 (
b1 )
#4323000
b10 )
#4325000
b11 )
#4341000
b100 )
#4343000
b11 (
b1 )
#4345000
b10 )
#4347000
b11 )
#4363000
b100 )
#4365000
b100 (
b1 )
#4367000
b10 )
#4369000
b11 )
#4385000
b100 )
#4387000
b101 (
b1 )
#4389000
b10 )
#4391000
b11 )
#4407000
b100 )
#4409000
b110 (
b1 )
#4411000
b10 )
#4413000
b11 )
#4429000
b100 )
#4431000
b111 (
b1 )
#4433000
b10 )
#4435000
b11 )
#4451000
b100 )
#4453000
b1000 (
b0 )
#4455000
b11 '
#4457000
1%
#4459000
b1111001 &
#4461000
b1111010 &
#4463000
b1111011 &
#4465000
b1111100 &
#4467000
b1111101 &
#4469000
b1111110 &
#4471000
b1111111 &
b100 '
#4473000
b100 "
b0 '
b10000000 &
0%
#4475000
b101 "
b0 $
#4687000
b100 "
#4689000
b101 "
#4901000
b100 "
#4903000
b101 "
#5115000
b100 "
#5117000
b101 "
#5329000
b100 "
#5331000
b101 "
#5543000
b100 "
#5545000
b101 "
#5757000
b100 "
#5759000
b101 "
#5971000
b100 "
#5973000
b101 "
#6185000
b110 "
#6221000
b111 "
#6223000
b0 "
