scripts/transcript
# do D:/Workspace/its_vvc/sim/run.do
# ** Warning: (vlib-34) Library already exists at "work".
# Model Technology ModelSim SE-64 vlog 10.6e Compiler 2018.06 Jun 23 2018
# Start time: 19:00:37 on May 20,2026
# vlog ../rtl/its_mac.v 
# -- Compiling module its_mac
# 
# Top level modules:
# 	its_mac
# End time: 19:00:37 on May 20,2026, Elapsed time: 0:00:00
# Errors: 0, Warnings: 0
# Model Technology ModelSim SE-64 vlog 10.6e Compiler 2018.06 Jun 23 2018
# Start time: 19:00:37 on May 20,2026
# vlog ../rtl/its_rom.v 
# -- Compiling module its_rom
# 
# Top level modules:
# 	its_rom
# End time: 19:00:37 on May 20,2026, Elapsed time: 0:00:00
# Errors: 0, Warnings: 0
# Model Technology ModelSim SE-64 vlog 10.6e Compiler 2018.06 Jun 23 2018
# Start time: 19:00:37 on May 20,2026
# vlog ../rtl/its_lfnst_rom.v 
# -- Compiling module its_lfnst_rom
# 
# Top level modules:
# 	its_lfnst_rom
# End time: 19:00:37 on May 20,2026, Elapsed time: 0:00:00
# Errors: 0, Warnings: 0
# Model Technology ModelSim SE-64 vlog 10.6e Compiler 2018.06 Jun 23 2018
# Start time: 19:00:37 on May 20,2026
# vlog ../rtl/its_ctrl.v 
# -- Compiling module its_ctrl
# 
# Top level modules:
# 	its_ctrl
# End time: 19:00:37 on May 20,2026, Elapsed time: 0:00:00
# Errors: 0, Warnings: 0
# Model Technology ModelSim SE-64 vlog 10.6e Compiler 2018.06 Jun 23 2018
# Start time: 19:00:37 on May 20,2026
# vlog ../rtl/its_input_buf.v 
# -- Compiling module its_input_buf
# 
# Top level modules:
# 	its_input_buf
# End time: 19:00:37 on May 20,2026, Elapsed time: 0:00:00
# Errors: 0, Warnings: 0
# Model Technology ModelSim SE-64 vlog 10.6e Compiler 2018.06 Jun 23 2018
# Start time: 19:00:37 on May 20,2026
# vlog ../rtl/its_transpose.v 
# -- Compiling module its_transpose
# 
# Top level modules:
# 	its_transpose
# End time: 19:00:37 on May 20,2026, Elapsed time: 0:00:00
# Errors: 0, Warnings: 0
# Model Technology ModelSim SE-64 vlog 10.6e Compiler 2018.06 Jun 23 2018
# Start time: 19:00:37 on May 20,2026
# vlog ../rtl/its_transform_engine.v 
# -- Compiling module its_transform_engine
# 
# Top level modules:
# 	its_transform_engine
# End time: 19:00:37 on May 20,2026, Elapsed time: 0:00:00
# Errors: 0, Warnings: 0
# Model Technology ModelSim SE-64 vlog 10.6e Compiler 2018.06 Jun 23 2018
# Start time: 19:00:37 on May 20,2026
# vlog ../rtl/its_lfnst.v 
# -- Compiling module its_lfnst
# 
# Top level modules:
# 	its_lfnst
# End time: 19:00:37 on May 20,2026, Elapsed time: 0:00:00
# Errors: 0, Warnings: 0
# Model Technology ModelSim SE-64 vlog 10.6e Compiler 2018.06 Jun 23 2018
# Start time: 19:00:37 on May 20,2026
# vlog ../rtl/its_output_ctrl.v 
# -- Compiling module its_output_ctrl
# 
# Top level modules:
# 	its_output_ctrl
# End time: 19:00:37 on May 20,2026, Elapsed time: 0:00:00
# Errors: 0, Warnings: 0
# Model Technology ModelSim SE-64 vlog 10.6e Compiler 2018.06 Jun 23 2018
# Start time: 19:00:37 on May 20,2026
# vlog ../rtl/its_top.v 
# -- Compiling module its_top
# 
# Top level modules:
# 	its_top
# End time: 19:00:37 on May 20,2026, Elapsed time: 0:00:00
# Errors: 0, Warnings: 0
# Model Technology ModelSim SE-64 vlog 10.6e Compiler 2018.06 Jun 23 2018
# Start time: 19:00:37 on May 20,2026
# vlog ../tb/its_tb.v 
# -- Compiling module its_tb
# 
# Top level modules:
# 	its_tb
# End time: 19:00:37 on May 20,2026, Elapsed time: 0:00:00
# Errors: 0, Warnings: 0
# vsim -t 1ps work.its_tb 
# Start time: 19:00:37 on May 20,2026
# ** Note: (vsim-8009) Loading existing optimized design _opt1
# //  ModelSim SE-64 10.6e Jun 23 2018
# //
# //  Copyright 1991-2018 Mentor Graphics Corporation
# //  All Rights Reserved.
# //
# //  ModelSim SE-64 and its associated documentation contain trade
# //  secrets and commercial or financial information that are the property of
# //  Mentor Graphics Corporation and are privileged, confidential,
# //  and exempt from disclosure under the Freedom of Information Act,
# //  5 U.S.C. Section 552. Furthermore, this information
# //  is prohibited from disclosure under the Trade Secrets Act,
# //  18 U.S.C. Section 1905.
# //
# Loading work.its_tb(fast)
# 
# === Test 1: DCT2 4x4 DC Input ===
#   Info sent: 4x4, tr_hor=0, tr_ver=0, lfnst=0, info=000204
#   State after info: 1, total_points=16
#   Data sent: addr=0, data=64, last=1, state=1, wr_cnt=0
#   Entering wait_output, it_data_out_vld=0
#   [1] top_st=2, row_idx=0, row_eng.st=0, row_eng.calc_st=0, row_eng.res_wr=0, row_out_vld=0, tp_wr=0
#   [2] top_st=3, row_idx=0, row_eng.st=1, row_eng.calc_st=1, row_eng.res_wr=0, row_out_vld=0, tp_wr=0
#   [3] top_st=3, row_idx=0, row_eng.st=1, row_eng.calc_st=1, row_eng.res_wr=0, row_out_vld=0, tp_wr=0
#   [4] top_st=3, row_idx=0, row_eng.st=1, row_eng.calc_st=1, row_eng.res_wr=0, row_out_vld=0, tp_wr=0
#   [5] top_st=3, row_idx=0, row_eng.st=1, row_eng.calc_st=1, row_eng.res_wr=0, row_out_vld=0, tp_wr=0
#   [6] top_st=3, row_idx=0, row_eng.st=2, row_eng.calc_st=1, row_eng.res_wr=0, row_out_vld=0, tp_wr=0
#   [7] top_st=3, row_idx=0, row_eng.st=2, row_eng.calc_st=2, row_eng.res_wr=0, row_out_vld=0, tp_wr=0
#   [8] top_st=3, row_idx=0, row_eng.st=2, row_eng.calc_st=3, row_eng.res_wr=0, row_out_vld=0, tp_wr=0
#   [9] top_st=3, row_idx=0, row_eng.st=2, row_eng.calc_st=3, row_eng.res_wr=0, row_out_vld=0, tp_wr=0
#   [10] top_st=3, row_idx=0, row_eng.st=2, row_eng.calc_st=3, row_eng.res_wr=0, row_out_vld=0, tp_wr=0
#   [11] top_st=3, row_idx=0, row_eng.st=2, row_eng.calc_st=3, row_eng.res_wr=0, row_out_vld=0, tp_wr=0
#   [12] top_st=3, row_idx=0, row_eng.st=2, row_eng.calc_st=4, row_eng.res_wr=0, row_out_vld=0, tp_wr=0
#   [13] top_st=3, row_idx=0, row_eng.st=2, row_eng.calc_st=1, row_eng.res_wr=1, row_out_vld=0, tp_wr=0
#   [14] top_st=3, row_idx=0, row_eng.st=2, row_eng.calc_st=2, row_eng.res_wr=1, row_out_vld=0, tp_wr=0
#   [15] top_st=3, row_idx=0, row_eng.st=2, row_eng.calc_st=3, row_eng.res_wr=1, row_out_vld=0, tp_wr=0
#   [16] top_st=3, row_idx=0, row_eng.st=2, row_eng.calc_st=3, row_eng.res_wr=1, row_out_vld=0, tp_wr=0
#   [17] top_st=3, row_idx=0, row_eng.st=2, row_eng.calc_st=3, row_eng.res_wr=1, row_out_vld=0, tp_wr=0
#   [18] top_st=3, row_idx=0, row_eng.st=2, row_eng.calc_st=3, row_eng.res_wr=1, row_out_vld=0, tp_wr=0
#   [19] top_st=3, row_idx=0, row_eng.st=2, row_eng.calc_st=4, row_eng.res_wr=1, row_out_vld=0, tp_wr=0
#   [20] top_st=3, row_idx=0, row_eng.st=2, row_eng.calc_st=1, row_eng.res_wr=2, row_out_vld=0, tp_wr=0
#   [21] top_st=3, row_idx=0, row_eng.st=2, row_eng.calc_st=2, row_eng.res_wr=2, row_out_vld=0, tp_wr=0
#   [22] top_st=3, row_idx=0, row_eng.st=2, row_eng.calc_st=3, row_eng.res_wr=2, row_out_vld=0, tp_wr=0
#   [23] top_st=3, row_idx=0, row_eng.st=2, row_eng.calc_st=3, row_eng.res_wr=2, row_out_vld=0, tp_wr=0
#   [24] top_st=3, row_idx=0, row_eng.st=2, row_eng.calc_st=3, row_eng.res_wr=2, row_out_vld=0, tp_wr=0
#   [25] top_st=3, row_idx=0, row_eng.st=2, row_eng.calc_st=3, row_eng.res_wr=2, row_out_vld=0, tp_wr=0
#   [26] top_st=3, row_idx=0, row_eng.st=2, row_eng.calc_st=4, row_eng.res_wr=2, row_out_vld=0, tp_wr=0
#   [27] top_st=3, row_idx=0, row_eng.st=2, row_eng.calc_st=1, row_eng.res_wr=3, row_out_vld=0, tp_wr=0
#   [28] top_st=3, row_idx=0, row_eng.st=2, row_eng.calc_st=2, row_eng.res_wr=3, row_out_vld=0, tp_wr=0
#   [29] top_st=3, row_idx=0, row_eng.st=2, row_eng.calc_st=3, row_eng.res_wr=3, row_out_vld=0, tp_wr=0
#   [30] top_st=3, row_idx=0, row_eng.st=2, row_eng.calc_st=3, row_eng.res_wr=3, row_out_vld=0, tp_wr=0
#   [31] top_st=3, row_idx=0, row_eng.st=2, row_eng.calc_st=3, row_eng.res_wr=3, row_out_vld=0, tp_wr=0
#   [32] top_st=3, row_idx=0, row_eng.st=2, row_eng.calc_st=3, row_eng.res_wr=3, row_out_vld=0, tp_wr=0
#   [33] top_st=3, row_idx=0, row_eng.st=2, row_eng.calc_st=4, row_eng.res_wr=3, row_out_vld=0, tp_wr=0
#   [34] top_st=3, row_idx=0, row_eng.st=2, row_eng.calc_st=0, row_eng.res_wr=4, row_out_vld=0, tp_wr=0
#   [35] top_st=3, row_idx=0, row_eng.st=3, row_eng.calc_st=0, row_eng.res_wr=4, row_out_vld=0, tp_wr=0
#   [36] top_st=3, row_idx=0, row_eng.st=3, row_eng.calc_st=0, row_eng.res_wr=4, row_out_vld=1, tp_wr=0
#   [37] top_st=3, row_idx=0, row_eng.st=3, row_eng.calc_st=0, row_eng.res_wr=4, row_out_vld=1, tp_wr=1
#   [38] top_st=3, row_idx=0, row_eng.st=3, row_eng.calc_st=0, row_eng.res_wr=4, row_out_vld=1, tp_wr=2
#   [39] top_st=3, row_idx=0, row_eng.st=4, row_eng.calc_st=0, row_eng.res_wr=4, row_out_vld=1, tp_wr=3
#   [40] top_st=2, row_idx=1, row_eng.st=0, row_eng.calc_st=0, row_eng.res_wr=4, row_out_vld=0, tp_wr=4
#   [41] top_st=3, row_idx=1, row_eng.st=1, row_eng.calc_st=1, row_eng.res_wr=0, row_out_vld=0, tp_wr=4
#   [42] top_st=3, row_idx=1, row_eng.st=1, row_eng.calc_st=1, row_eng.res_wr=0, row_out_vld=0, tp_wr=4
#   [43] top_st=3, row_idx=1, row_eng.st=1, row_eng.calc_st=1, row_eng.res_wr=0, row_out_vld=0, tp_wr=4
#   [44] top_st=3, row_idx=1, row_eng.st=1, row_eng.calc_st=1, row_eng.res_wr=0, row_out_vld=0, tp_wr=4
#   [45] top_st=3, row_idx=1, row_eng.st=2, row_eng.calc_st=1, row_eng.res_wr=0, row_out_vld=0, tp_wr=4
#   [46] top_st=3, row_idx=1, row_eng.st=2, row_eng.calc_st=2, row_eng.res_wr=0, row_out_vld=0, tp_wr=4
#   [47] top_st=3, row_idx=1, row_eng.st=2, row_eng.calc_st=3, row_eng.res_wr=0, row_out_vld=0, tp_wr=4
#   [48] top_st=3, row_idx=1, row_eng.st=2, row_eng.calc_st=3, row_eng.res_wr=0, row_out_vld=0, tp_wr=4
#   [49] top_st=3, row_idx=1, row_eng.st=2, row_eng.calc_st=3, row_eng.res_wr=0, row_out_vld=0, tp_wr=4
#   [50] top_st=3, row_idx=1, row_eng.st=2, row_eng.calc_st=3, row_eng.res_wr=0, row_out_vld=0, tp_wr=4
#   [60] top_st=3, row_idx=1, row_eng.st=2, row_eng.calc_st=2, row_eng.res_wr=2, row_out_vld=0, tp_wr=4
#   [80] top_st=3, row_idx=2, row_eng.st=1, row_eng.calc_st=1, row_eng.res_wr=0, row_out_vld=0, tp_wr=8
#   [100] top_st=3, row_idx=2, row_eng.st=2, row_eng.calc_st=3, row_eng.res_wr=2, row_out_vld=0, tp_wr=8
#   [120] top_st=3, row_idx=3, row_eng.st=1, row_eng.calc_st=1, row_eng.res_wr=0, row_out_vld=0, tp_wr=12
#   [140] top_st=3, row_idx=3, row_eng.st=2, row_eng.calc_st=3, row_eng.res_wr=2, row_out_vld=0, tp_wr=12
#   [160] top_st=5, row_idx=0, row_eng.st=0, row_eng.calc_st=0, row_eng.res_wr=4, row_out_vld=0, tp_wr=16
#   [180] top_st=5, row_idx=0, row_eng.st=0, row_eng.calc_st=0, row_eng.res_wr=4, row_out_vld=0, tp_wr=16
#   [200] top_st=5, row_idx=0, row_eng.st=0, row_eng.calc_st=0, row_eng.res_wr=4, row_out_vld=0, tp_wr=16
#   [220] top_st=5, row_idx=0, row_eng.st=0, row_eng.calc_st=0, row_eng.res_wr=4, row_out_vld=0, tp_wr=16
#   [240] top_st=5, row_idx=0, row_eng.st=0, row_eng.calc_st=0, row_eng.res_wr=4, row_out_vld=0, tp_wr=16
#   [260] top_st=5, row_idx=0, row_eng.st=0, row_eng.calc_st=0, row_eng.res_wr=4, row_out_vld=0, tp_wr=16
#   [280] top_st=5, row_idx=0, row_eng.st=0, row_eng.calc_st=0, row_eng.res_wr=4, row_out_vld=0, tp_wr=16
#   [300] top_st=5, row_idx=0, row_eng.st=0, row_eng.calc_st=0, row_eng.res_wr=4, row_out_vld=0, tp_wr=16
#   Output (hex): 1004010040
#   Output (dec): 64 64 64 64
#   Done!
# 
# === Test 2: DCT2 4x4 Multi Input ===
#   Info sent: 4x4, tr_hor=0, tr_ver=0, lfnst=0, info=000204
#   State after info: 1, total_points=16
#   Data sent: addr=0, data=100, last=0, state=1, wr_cnt=0
#   Data sent: addr=1, data=50, last=0, state=1, wr_cnt=1
#   Data sent: addr=4, data=30, last=0, state=1, wr_cnt=2
#   Data sent: addr=5, data=20, last=1, state=1, wr_cnt=3
#   Entering wait_output, it_data_out_vld=0
#   [1] top_st=2, row_idx=0, row_eng.st=0, row_eng.calc_st=0, row_eng.res_wr=4, row_out_vld=0, tp_wr=16
#   [2] top_st=3, row_idx=0, row_eng.st=1, row_eng.calc_st=1, row_eng.res_wr=0, row_out_vld=0, tp_wr=16
#   [3] top_st=3, row_idx=0, row_eng.st=1, row_eng.calc_st=1, row_eng.res_wr=0, row_out_vld=0, tp_wr=16
#   [4] top_st=3, row_idx=0, row_eng.st=1, row_eng.calc_st=1, row_eng.res_wr=0, row_out_vld=0, tp_wr=16
#   [5] top_st=3, row_idx=0, row_eng.st=1, row_eng.calc_st=1, row_eng.res_wr=0, row_out_vld=0, tp_wr=16
#   [6] top_st=3, row_idx=0, row_eng.st=2, row_eng.calc_st=1, row_eng.res_wr=0, row_out_vld=0, tp_wr=16
#   [7] top_st=3, row_idx=0, row_eng.st=2, row_eng.calc_st=2, row_eng.res_wr=0, row_out_vld=0, tp_wr=16
#   [8] top_st=3, row_idx=0, row_eng.st=2, row_eng.calc_st=3, row_eng.res_wr=0, row_out_vld=0, tp_wr=16
#   [9] top_st=3, row_idx=0, row_eng.st=2, row_eng.calc_st=3, row_eng.res_wr=0, row_out_vld=0, tp_wr=16
#   [10] top_st=3, row_idx=0, row_eng.st=2, row_eng.calc_st=3, row_eng.res_wr=0, row_out_vld=0, tp_wr=16
#   [11] top_st=3, row_idx=0, row_eng.st=2, row_eng.calc_st=3, row_eng.res_wr=0, row_out_vld=0, tp_wr=16
#   [12] top_st=3, row_idx=0, row_eng.st=2, row_eng.calc_st=4, row_eng.res_wr=0, row_out_vld=0, tp_wr=16
#   [13] top_st=3, row_idx=0, row_eng.st=2, row_eng.calc_st=1, row_eng.res_wr=1, row_out_vld=0, tp_wr=16
#   [14] top_st=3, row_idx=0, row_eng.st=2, row_eng.calc_st=2, row_eng.res_wr=1, row_out_vld=0, tp_wr=16
#   [15] top_st=3, row_idx=0, row_eng.st=2, row_eng.calc_st=3, row_eng.res_wr=1, row_out_vld=0, tp_wr=16
#   [16] top_st=3, row_idx=0, row_eng.st=2, row_eng.calc_st=3, row_eng.res_wr=1, row_out_vld=0, tp_wr=16
#   [17] top_st=3, row_idx=0, row_eng.st=2, row_eng.calc_st=3, row_eng.res_wr=1, row_out_vld=0, tp_wr=16
#   [18] top_st=3, row_idx=0, row_eng.st=2, row_eng.calc_st=3, row_eng.res_wr=1, row_out_vld=0, tp_wr=16
#   [19] top_st=3, row_idx=0, row_eng.st=2, row_eng.calc_st=4, row_eng.res_wr=1, row_out_vld=0, tp_wr=16
#   [20] top_st=3, row_idx=0, row_eng.st=2, row_eng.calc_st=1, row_eng.res_wr=2, row_out_vld=0, tp_wr=16
#   [21] top_st=3, row_idx=0, row_eng.st=2, row_eng.calc_st=2, row_eng.res_wr=2, row_out_vld=0, tp_wr=16
#   [22] top_st=3, row_idx=0, row_eng.st=2, row_eng.calc_st=3, row_eng.res_wr=2, row_out_vld=0, tp_wr=16
#   [23] top_st=3, row_idx=0, row_eng.st=2, row_eng.calc_st=3, row_eng.res_wr=2, row_out_vld=0, tp_wr=16
#   [24] top_st=3, row_idx=0, row_eng.st=2, row_eng.calc_st=3, row_eng.res_wr=2, row_out_vld=0, tp_wr=16
#   [25] top_st=3, row_idx=0, row_eng.st=2, row_eng.calc_st=3, row_eng.res_wr=2, row_out_vld=0, tp_wr=16
#   [26] top_st=3, row_idx=0, row_eng.st=2, row_eng.calc_st=4, row_eng.res_wr=2, row_out_vld=0, tp_wr=16
#   [27] top_st=3, row_idx=0, row_eng.st=2, row_eng.calc_st=1, row_eng.res_wr=3, row_out_vld=0, tp_wr=16
#   [28] top_st=3, row_idx=0, row_eng.st=2, row_eng.calc_st=2, row_eng.res_wr=3, row_out_vld=0, tp_wr=16
#   [29] top_st=3, row_idx=0, row_eng.st=2, row_eng.calc_st=3, row_eng.res_wr=3, row_out_vld=0, tp_wr=16
#   [30] top_st=3, row_idx=0, row_eng.st=2, row_eng.calc_st=3, row_eng.res_wr=3, row_out_vld=0, tp_wr=16
#   [31] top_st=3, row_idx=0, row_eng.st=2, row_eng.calc_st=3, row_eng.res_wr=3, row_out_vld=0, tp_wr=16
#   [32] top_st=3, row_idx=0, row_eng.st=2, row_eng.calc_st=3, row_eng.res_wr=3, row_out_vld=0, tp_wr=16
#   [33] top_st=3, row_idx=0, row_eng.st=2, row_eng.calc_st=4, row_eng.res_wr=3, row_out_vld=0, tp_wr=16
#   [34] top_st=3, row_idx=0, row_eng.st=2, row_eng.calc_st=0, row_eng.res_wr=4, row_out_vld=0, tp_wr=16
#   [35] top_st=3, row_idx=0, row_eng.st=3, row_eng.calc_st=0, row_eng.res_wr=4, row_out_vld=0, tp_wr=16
#   [36] top_st=3, row_idx=0, row_eng.st=3, row_eng.calc_st=0, row_eng.res_wr=4, row_out_vld=1, tp_wr=16
#   [37] top_st=3, row_idx=0, row_eng.st=3, row_eng.calc_st=0, row_eng.res_wr=4, row_out_vld=1, tp_wr=17
#   [38] top_st=3, row_idx=0, row_eng.st=3, row_eng.calc_st=0, row_eng.res_wr=4, row_out_vld=1, tp_wr=18
#   [39] top_st=3, row_idx=0, row_eng.st=4, row_eng.calc_st=0, row_eng.res_wr=4, row_out_vld=1, tp_wr=19
#   [40] top_st=2, row_idx=1, row_eng.st=0, row_eng.calc_st=0, row_eng.res_wr=4, row_out_vld=0, tp_wr=20
#   [41] top_st=3, row_idx=1, row_eng.st=1, row_eng.calc_st=1, row_eng.res_wr=0, row_out_vld=0, tp_wr=20
#   [42] top_st=3, row_idx=1, row_eng.st=1, row_eng.calc_st=1, row_eng.res_wr=0, row_out_vld=0, tp_wr=20
#   [43] top_st=3, row_idx=1, row_eng.st=1, row_eng.calc_st=1, row_eng.res_wr=0, row_out_vld=0, tp_wr=20
#   [44] top_st=3, row_idx=1, row_eng.st=1, row_eng.calc_st=1, row_eng.res_wr=0, row_out_vld=0, tp_wr=20
#   [45] top_st=3, row_idx=1, row_eng.st=2, row_eng.calc_st=1, row_eng.res_wr=0, row_out_vld=0, tp_wr=20
#   [46] top_st=3, row_idx=1, row_eng.st=2, row_eng.calc_st=2, row_eng.res_wr=0, row_out_vld=0, tp_wr=20
#   [47] top_st=3, row_idx=1, row_eng.st=2, row_eng.calc_st=3, row_eng.res_wr=0, row_out_vld=0, tp_wr=20
#   [48] top_st=3, row_idx=1, row_eng.st=2, row_eng.calc_st=3, row_eng.res_wr=0, row_out_vld=0, tp_wr=20
#   [49] top_st=3, row_idx=1, row_eng.st=2, row_eng.calc_st=3, row_eng.res_wr=0, row_out_vld=0, tp_wr=20
#   [50] top_st=3, row_idx=1, row_eng.st=2, row_eng.calc_st=3, row_eng.res_wr=0, row_out_vld=0, tp_wr=20
#   [60] top_st=3, row_idx=1, row_eng.st=2, row_eng.calc_st=2, row_eng.res_wr=2, row_out_vld=0, tp_wr=20
#   [80] top_st=3, row_idx=2, row_eng.st=1, row_eng.calc_st=1, row_eng.res_wr=0, row_out_vld=0, tp_wr=24
#   [100] top_st=3, row_idx=2, row_eng.st=2, row_eng.calc_st=3, row_eng.res_wr=2, row_out_vld=0, tp_wr=24
#   [120] top_st=3, row_idx=3, row_eng.st=1, row_eng.calc_st=1, row_eng.res_wr=0, row_out_vld=0, tp_wr=28
#   [140] top_st=3, row_idx=3, row_eng.st=2, row_eng.calc_st=3, row_eng.res_wr=2, row_out_vld=0, tp_wr=28
#   [160] top_st=5, row_idx=0, row_eng.st=0, row_eng.calc_st=0, row_eng.res_wr=4, row_out_vld=0, tp_wr=32
#   [180] top_st=5, row_idx=0, row_eng.st=0, row_eng.calc_st=0, row_eng.res_wr=4, row_out_vld=0, tp_wr=32
#   [200] top_st=5, row_idx=0, row_eng.st=0, row_eng.calc_st=0, row_eng.res_wr=4, row_out_vld=0, tp_wr=32
#   [220] top_st=5, row_idx=0, row_eng.st=0, row_eng.calc_st=0, row_eng.res_wr=4, row_out_vld=0, tp_wr=32
#   [240] top_st=5, row_idx=0, row_eng.st=0, row_eng.calc_st=0, row_eng.res_wr=4, row_out_vld=0, tp_wr=32
#   [260] top_st=5, row_idx=0, row_eng.st=0, row_eng.calc_st=0, row_eng.res_wr=4, row_out_vld=0, tp_wr=32
#   [280] top_st=5, row_idx=0, row_eng.st=0, row_eng.calc_st=0, row_eng.res_wr=4, row_out_vld=0, tp_wr=32
#   [300] top_st=5, row_idx=0, row_eng.st=0, row_eng.calc_st=0, row_eng.res_wr=4, row_out_vld=0, tp_wr=32
#   Output (hex): 0a0612d4ee
#   Output (dec): 238 181 97 40
#   Entering wait_output, it_data_out_vld=1
#   [1] top_st=6, row_idx=0, row_eng.st=0, row_eng.calc_st=0, row_eng.res_wr=4, row_out_vld=0, tp_wr=32
#   Output (hex): 0945325cc5
#   Output (dec): 197 151 83 37
#   Done!
# 
# === Test 3: DCT8 4x4 ===
#   Info sent: 4x4, tr_hor=1, tr_ver=1, lfnst=0, info=014204
#   State after info: 1, total_points=16
#   Data sent: addr=0, data=80, last=0, state=1, wr_cnt=0
#   Data sent: addr=1, data=40, last=0, state=1, wr_cnt=1
#   Data sent: addr=2, data=20, last=0, state=1, wr_cnt=2
#   Data sent: addr=3, data=10, last=1, state=1, wr_cnt=3
#   Entering wait_output, it_data_out_vld=0
#   [1] top_st=2, row_idx=0, row_eng.st=0, row_eng.calc_st=0, row_eng.res_wr=4, row_out_vld=0, tp_wr=32
#   [2] top_st=3, row_idx=0, row_eng.st=1, row_eng.calc_st=1, row_eng.res_wr=0, row_out_vld=0, tp_wr=32
#   [3] top_st=3, row_idx=0, row_eng.st=1, row_eng.calc_st=1, row_eng.res_wr=0, row_out_vld=0, tp_wr=32
#   [4] top_st=3, row_idx=0, row_eng.st=1, row_eng.calc_st=1, row_eng.res_wr=0, row_out_vld=0, tp_wr=32
#   [5] top_st=3, row_idx=0, row_eng.st=1, row_eng.calc_st=1, row_eng.res_wr=0, row_out_vld=0, tp_wr=32
#   [6] top_st=3, row_idx=0, row_eng.st=2, row_eng.calc_st=1, row_eng.res_wr=0, row_out_vld=0, tp_wr=32
#   [7] top_st=3, row_idx=0, row_eng.st=2, row_eng.calc_st=2, row_eng.res_wr=0, row_out_vld=0, tp_wr=32
#   [8] top_st=3, row_idx=0, row_eng.st=2, row_eng.calc_st=3, row_eng.res_wr=0, row_out_vld=0, tp_wr=32
#   [9] top_st=3, row_idx=0, row_eng.st=2, row_eng.calc_st=3, row_eng.res_wr=0, row_out_vld=0, tp_wr=32
#   [10] top_st=3, row_idx=0, row_eng.st=2, row_eng.calc_st=3, row_eng.res_wr=0, row_out_vld=0, tp_wr=32
#   [11] top_st=3, row_idx=0, row_eng.st=2, row_eng.calc_st=3, row_eng.res_wr=0, row_out_vld=0, tp_wr=32
#   [12] top_st=3, row_idx=0, row_eng.st=2, row_eng.calc_st=4, row_eng.res_wr=0, row_out_vld=0, tp_wr=32
#   [13] top_st=3, row_idx=0, row_eng.st=2, row_eng.calc_st=1, row_eng.res_wr=1, row_out_vld=0, tp_wr=32
#   [14] top_st=3, row_idx=0, row_eng.st=2, row_eng.calc_st=2, row_eng.res_wr=1, row_out_vld=0, tp_wr=32
#   [15] top_st=3, row_idx=0, row_eng.st=2, row_eng.calc_st=3, row_eng.res_wr=1, row_out_vld=0, tp_wr=32
#   [16] top_st=3, row_idx=0, row_eng.st=2, row_eng.calc_st=3, row_eng.res_wr=1, row_out_vld=0, tp_wr=32
#   [17] top_st=3, row_idx=0, row_eng.st=2, row_eng.calc_st=3, row_eng.res_wr=1, row_out_vld=0, tp_wr=32
#   [18] top_st=3, row_idx=0, row_eng.st=2, row_eng.calc_st=3, row_eng.res_wr=1, row_out_vld=0, tp_wr=32
#   [19] top_st=3, row_idx=0, row_eng.st=2, row_eng.calc_st=4, row_eng.res_wr=1, row_out_vld=0, tp_wr=32
#   [20] top_st=3, row_idx=0, row_eng.st=2, row_eng.calc_st=1, row_eng.res_wr=2, row_out_vld=0, tp_wr=32
#   [21] top_st=3, row_idx=0, row_eng.st=2, row_eng.calc_st=2, row_eng.res_wr=2, row_out_vld=0, tp_wr=32
#   [22] top_st=3, row_idx=0, row_eng.st=2, row_eng.calc_st=3, row_eng.res_wr=2, row_out_vld=0, tp_wr=32
#   [23] top_st=3, row_idx=0, row_eng.st=2, row_eng.calc_st=3, row_eng.res_wr=2, row_out_vld=0, tp_wr=32
#   [24] top_st=3, row_idx=0, row_eng.st=2, row_eng.calc_st=3, row_eng.res_wr=2, row_out_vld=0, tp_wr=32
#   [25] top_st=3, row_idx=0, row_eng.st=2, row_eng.calc_st=3, row_eng.res_wr=2, row_out_vld=0, tp_wr=32
#   [26] top_st=3, row_idx=0, row_eng.st=2, row_eng.calc_st=4, row_eng.res_wr=2, row_out_vld=0, tp_wr=32
#   [27] top_st=3, row_idx=0, row_eng.st=2, row_eng.calc_st=1, row_eng.res_wr=3, row_out_vld=0, tp_wr=32
#   [28] top_st=3, row_idx=0, row_eng.st=2, row_eng.calc_st=2, row_eng.res_wr=3, row_out_vld=0, tp_wr=32
#   [29] top_st=3, row_idx=0, row_eng.st=2, row_eng.calc_st=3, row_eng.res_wr=3, row_out_vld=0, tp_wr=32
#   [30] top_st=3, row_idx=0, row_eng.st=2, row_eng.calc_st=3, row_eng.res_wr=3, row_out_vld=0, tp_wr=32
#   [31] top_st=3, row_idx=0, row_eng.st=2, row_eng.calc_st=3, row_eng.res_wr=3, row_out_vld=0, tp_wr=32
#   [32] top_st=3, row_idx=0, row_eng.st=2, row_eng.calc_st=3, row_eng.res_wr=3, row_out_vld=0, tp_wr=32
#   [33] top_st=3, row_idx=0, row_eng.st=2, row_eng.calc_st=4, row_eng.res_wr=3, row_out_vld=0, tp_wr=32
#   [34] top_st=3, row_idx=0, row_eng.st=2, row_eng.calc_st=0, row_eng.res_wr=4, row_out_vld=0, tp_wr=32
#   [35] top_st=3, row_idx=0, row_eng.st=3, row_eng.calc_st=0, row_eng.res_wr=4, row_out_vld=0, tp_wr=32
#   [36] top_st=3, row_idx=0, row_eng.st=3, row_eng.calc_st=0, row_eng.res_wr=4, row_out_vld=1, tp_wr=32
#   [37] top_st=3, row_idx=0, row_eng.st=3, row_eng.calc_st=0, row_eng.res_wr=4, row_out_vld=1, tp_wr=33
#   [38] top_st=3, row_idx=0, row_eng.st=3, row_eng.calc_st=0, row_eng.res_wr=4, row_out_vld=1, tp_wr=34
#   [39] top_st=3, row_idx=0, row_eng.st=4, row_eng.calc_st=0, row_eng.res_wr=4, row_out_vld=1, tp_wr=35
#   [40] top_st=2, row_idx=1, row_eng.st=0, row_eng.calc_st=0, row_eng.res_wr=4, row_out_vld=0, tp_wr=36
#   [41] top_st=3, row_idx=1, row_eng.st=1, row_eng.calc_st=1, row_eng.res_wr=0, row_out_vld=0, tp_wr=36
#   [42] top_st=3, row_idx=1, row_eng.st=1, row_eng.calc_st=1, row_eng.res_wr=0, row_out_vld=0, tp_wr=36
#   [43] top_st=3, row_idx=1, row_eng.st=1, row_eng.calc_st=1, row_eng.res_wr=0, row_out_vld=0, tp_wr=36
#   [44] top_st=3, row_idx=1, row_eng.st=1, row_eng.calc_st=1, row_eng.res_wr=0, row_out_vld=0, tp_wr=36
#   [45] top_st=3, row_idx=1, row_eng.st=2, row_eng.calc_st=1, row_eng.res_wr=0, row_out_vld=0, tp_wr=36
#   [46] top_st=3, row_idx=1, row_eng.st=2, row_eng.calc_st=2, row_eng.res_wr=0, row_out_vld=0, tp_wr=36
#   [47] top_st=3, row_idx=1, row_eng.st=2, row_eng.calc_st=3, row_eng.res_wr=0, row_out_vld=0, tp_wr=36
#   [48] top_st=3, row_idx=1, row_eng.st=2, row_eng.calc_st=3, row_eng.res_wr=0, row_out_vld=0, tp_wr=36
#   [49] top_st=3, row_idx=1, row_eng.st=2, row_eng.calc_st=3, row_eng.res_wr=0, row_out_vld=0, tp_wr=36
#   [50] top_st=3, row_idx=1, row_eng.st=2, row_eng.calc_st=3, row_eng.res_wr=0, row_out_vld=0, tp_wr=36
